%YAML 1.1
%TAG !u! tag:unity3d.com,2011:
--- !u!114 &11400000
MonoBehaviour:
  m_ObjectHideFlags: 0
  m_CorrespondingSourceObject: {fileID: 0}
  m_PrefabInstance: {fileID: 0}
  m_PrefabAsset: {fileID: 0}
  m_GameObject: {fileID: 0}
  m_Enabled: 1
  m_EditorHideFlags: 0
  m_Script: {fileID: 11500000, guid: a8534f863b434c1f8d04cd3c9d752fca, type: 3}
  m_Name: Level3CompletedOnTime
  m_EditorClassIdentifier: 
  achievementType: 6
  sprites:
  - {fileID: 21300000, guid: 1ee61c669a3e2ff47946a17cb62652af, type: 3}
