%YAML 1.1
%TAG !u! tag:unity3d.com,2011:
--- !u!114 &11400000
MonoBehaviour:
  m_ObjectHideFlags: 0
  m_CorrespondingSourceObject: {fileID: 0}
  m_PrefabInstance: {fileID: 0}
  m_PrefabAsset: {fileID: 0}
  m_GameObject: {fileID: 0}
  m_Enabled: 1
  m_EditorHideFlags: 0
  m_Script: {fileID: 11500000, guid: f7f4277abccb24d7fb41a4ea6945e9f9, type: 3}
  m_Name: Options
  m_EditorClassIdentifier: 
  scenes:
  - sceneAsset: {fileID: 102900000, guid: 02f43ec87f2e3dc4b9e041a8e2b25326, type: 3}
    sceneName: Options
  setFirstAsActive: 1
