%YAML 1.1
%TAG !u! tag:unity3d.com,2011:
--- !u!114 &11400000
MonoBehaviour:
  m_ObjectHideFlags: 0
  m_CorrespondingSourceObject: {fileID: 0}
  m_PrefabInstance: {fileID: 0}
  m_PrefabAsset: {fileID: 0}
  m_GameObject: {fileID: 0}
  m_Enabled: 1
  m_EditorHideFlags: 0
  m_Script: {fileID: 11500000, guid: 542ff516f1db48e6b6c905fedc5a3e95, type: 3}
  m_Name: Phone
  m_EditorClassIdentifier: 
  sprite: {fileID: 21300000, guid: 244cedd9d9df73342b4fd4a117a79949, type: 3}
  tag: Phone
