%YAML 1.1
%TAG !u! tag:unity3d.com,2011:
--- !u!1045 &1
EditorBuildSettings:
  m_ObjectHideFlags: 0
  serializedVersion: 2
  m_Scenes:
  - enabled: 1
    path: Assets/Scenes/Main/Main.unity
    guid: 9fc0d4010bbf28b4594072e72b8655ab
  - enabled: 1
    path: Assets/Scenes/Menus/File Selection/FileSelection.unity
    guid: 1c8edbde9c1fae942980bcfdd5280bb8
  - enabled: 1
    path: Assets/Scenes/Menus/Home/Home.unity
    guid: 5dca6272a1175dd14b889b82e03923e6
  - enabled: 1
    path: Assets/Scenes/Menus/Options/Options.unity
    guid: 02f43ec87f2e3dc4b9e041a8e2b25326
  - enabled: 1
    path: Assets/Scenes/Menus/LevelSelection/LevelSelection.unity
    guid: f85b6a7d95ec073458eb903598bfa91d
  - enabled: 1
    path: Assets/Scenes/Menus/Achievements/Achievements.unity
    guid: 1cc284c03bb1a76489f71b55a4f20a53
  - enabled: 1
    path: Assets/Scenes/Game/Game.unity
    guid: aa81d75dd21af80a68ef713bd5c5ee08
  - enabled: 1
    path: Assets/Scenes/Menus/Pause/Pause.unity
    guid: 97dd5c67ad1105b4e9a8190e3145a973
  - enabled: 1
    path: Assets/Scenes/Levels/Level1/Level1.unity
    guid: cd874cf68b8370846b017002391a793a
  - enabled: 1
    path: Assets/Scenes/Levels/Level2/Level2.unity
    guid: 4575af92f359a844dafc64730a0b2e05
  - enabled: 1
    path: Assets/Scenes/Levels/Level3/Level3.unity
    guid: 821af06fbf35a254bb8ca2329cdeefa5
  - enabled: 1
    path: Assets/Scenes/Levels/Level4/Level4.unity
    guid: d84a430428b318643a6ff3070fa0cbe8
  - enabled: 1
    path: Assets/Scenes/Levels/Level5/Level5.unity
    guid: 198d970572256d7488e731daf2a5a181
  - enabled: 1
    path: Assets/Scenes/Game/UI.unity
    guid: 1707fe0928e9e2a4b865c7519b0e07f1
  m_configObjects:
    com.unity.input.settings: {fileID: 11400000, guid: 79d6550034a31c07484e345cf2aba806,
      type: 2}
