%YAML 1.1
%TAG !u! tag:unity3d.com,2011:
--- !u!78 &1
TagManager:
  serializedVersion: 2
  tags:
  - MainController
  - Terrain
  - NavigationMesh
  - GameCamera
  - Music
  - Ambient
  - Sonar
  - Inventory
  - Dog
  - Objective
  - Timer
  - SpawnPoint
  - DespawnPoint
  - Waypoint
  - Enemy
  - Background
  - Bus
  - OptionsController
  - LevelController
  - StartCamera
  - EndCamera
  - Vehicule
  - Languages
  - FR
  - ENG
  - NOR
  - HUD
  - LevelImage
  - Checklist
  - SoundPlayer
  - AchievementButtons
  - Limit
  layers:
  - Default
  - TransparentFX
  - Ignore Raycast
  - 
  - Water
  - UI
  - 
  - 
  - Sensor
  - 
  - 
  - 
  - 
  - 
  - 
  - 
  - 
  - 
  - 
  - 
  - 
  - 
  - 
  - 
  - 
  - 
  - 
  - 
  - 
  - 
  - 
  - 
  m_SortingLayers:
  - name: Default
    uniqueID: 0
    locked: 0
