@startuml

class BackUp {
  lastLevelUnlocked : Level
  achievments : List<Achievment>
  options : options
}

class Achievment {
  achievmentName : string
}

class Options {
  stepSound : float
  environmentSounds : float
  fullScreenEnable : bool
}

enum Level {
  Level1
  Level2
  Level3
  Level4
  Level5
}

Level }|-|| BackUp
BackUp }|-|| Achievment
BackUp ||--|| Options
  
@enduml